%!PS-Adobe-2.0 EPSF-2.0
%%Title: reference_tetrahedron.fig
%%Creator: fig2dev Version 3.2 Patchlevel 5-alpha5
%%CreationDate: Tue May 10 17:09:26 2005
%%For: logg@galerkin (Anders Logg,,,)
%%BoundingBox: 0 0 612 797
%Magnification: 1.0000
%%EndComments
/$F2psDict 200 dict def
$F2psDict begin
$F2psDict /mtrx matrix put
/col-1 {0 setgray} bind def
/col0 {0.000 0.000 0.000 srgb} bind def
/col1 {0.000 0.000 1.000 srgb} bind def
/col2 {0.000 1.000 0.000 srgb} bind def
/col3 {0.000 1.000 1.000 srgb} bind def
/col4 {1.000 0.000 0.000 srgb} bind def
/col5 {1.000 0.000 1.000 srgb} bind def
/col6 {1.000 1.000 0.000 srgb} bind def
/col7 {1.000 1.000 1.000 srgb} bind def
/col8 {0.000 0.000 0.560 srgb} bind def
/col9 {0.000 0.000 0.690 srgb} bind def
/col10 {0.000 0.000 0.820 srgb} bind def
/col11 {0.530 0.810 1.000 srgb} bind def
/col12 {0.000 0.560 0.000 srgb} bind def
/col13 {0.000 0.690 0.000 srgb} bind def
/col14 {0.000 0.820 0.000 srgb} bind def
/col15 {0.000 0.560 0.560 srgb} bind def
/col16 {0.000 0.690 0.690 srgb} bind def
/col17 {0.000 0.820 0.820 srgb} bind def
/col18 {0.560 0.000 0.000 srgb} bind def
/col19 {0.690 0.000 0.000 srgb} bind def
/col20 {0.820 0.000 0.000 srgb} bind def
/col21 {0.560 0.000 0.560 srgb} bind def
/col22 {0.690 0.000 0.690 srgb} bind def
/col23 {0.820 0.000 0.820 srgb} bind def
/col24 {0.500 0.190 0.000 srgb} bind def
/col25 {0.630 0.250 0.000 srgb} bind def
/col26 {0.750 0.380 0.000 srgb} bind def
/col27 {1.000 0.500 0.500 srgb} bind def
/col28 {1.000 0.630 0.630 srgb} bind def
/col29 {1.000 0.750 0.750 srgb} bind def
/col30 {1.000 0.880 0.880 srgb} bind def
/col31 {1.000 0.840 0.000 srgb} bind def

end
save
newpath 0 797 moveto 0 0 lineto 612 0 lineto 612 797 lineto closepath clip newpath
-55.7 738.4 translate
1 -1 scale

/cp {closepath} bind def
/ef {eofill} bind def
/gr {grestore} bind def
/gs {gsave} bind def
/sa {save} bind def
/rs {restore} bind def
/l {lineto} bind def
/m {moveto} bind def
/rm {rmoveto} bind def
/n {newpath} bind def
/s {stroke} bind def
/sh {show} bind def
/slc {setlinecap} bind def
/slj {setlinejoin} bind def
/slw {setlinewidth} bind def
/srgb {setrgbcolor} bind def
/rot {rotate} bind def
/sc {scale} bind def
/sd {setdash} bind def
/ff {findfont} bind def
/sf {setfont} bind def
/scf {scalefont} bind def
/sw {stringwidth} bind def
/tr {translate} bind def
/tnt {dup dup currentrgbcolor
  4 -2 roll dup 1 exch sub 3 -1 roll mul add
  4 -2 roll dup 1 exch sub 3 -1 roll mul add
  4 -2 roll dup 1 exch sub 3 -1 roll mul add srgb}
  bind def
/shd {dup dup currentrgbcolor 4 -2 roll mul 4 -2 roll mul
  4 -2 roll mul srgb} bind def
/$F2psBegin {$F2psDict begin /$F2psEnteredState save def} def
/$F2psEnd {$F2psEnteredState restore end} def

$F2psBegin
10 setmiterlimit
0 slj 0 slc
 0.06299 0.06299 sc
%
% Fig objects follow
%
% 
% here starts figure with depth 50
% Polyline
0 slj
0 slc
15.000 slw
gs  clippath
1860 -594 m 1860 -915 l 1740 -915 l 1740 -594 l 1740 -594 l 1800 -834 l 1860 -594 l cp
eoclip
n 1800 8550 m
 1800 -900 l gs col0 s gr gr

% arrowhead
n 1860 -594 m 1800 -834 l 1740 -594 l 1860 -594 l  cp gs 0.00 setgray ef gr  col0 s
% Polyline
45.000 slw
n 1800 8550 m 6750 10800 l 1800 1350 l
 1800 8550 l  cp gs col0 s gr 
% Polyline
15.000 slw
gs  clippath
8472 11628 m 8763 11760 l 8813 11651 l 8521 11519 l 8521 11519 l 8716 11673 l 8472 11628 l cp
eoclip
n 1800 8550 m
 8775 11700 l gs col0 s gr gr

% arrowhead
n 8472 11628 m 8716 11673 l 8521 11519 l 8472 11628 l  cp gs 0.00 setgray ef gr  col0 s
% Polyline
gs  clippath
10278 7741 m 10596 7708 l 10583 7588 l 10266 7621 l 10266 7621 l 10511 7657 l 10278 7741 l cp
eoclip
n 1800 8550 m
 10575 7650 l gs col0 s gr gr

% arrowhead
n 10278 7741 m 10511 7657 l 10266 7621 l 10278 7741 l  cp gs 0.00 setgray ef gr  col0 s
% Polyline
45.000 slw
n 8550 7875 m
 6750 10800 l gs col0 s gr 
% Polyline
n 8550 7875 m
 1800 1350 l gs col0 s gr 
% Polyline
 [150] 0 sd
n 1800 8550 m
 8550 7875 l gs col0 s gr  [] 0 sd
/Helvetica ff 476.25 scf sf
8325 11250 m
gs 1 -1 sc (x0) col0 sh gr
/Helvetica ff 476.25 scf sf
9900 7425 m
gs 1 -1 sc (x1) col0 sh gr
/Helvetica ff 476.25 scf sf
900 8775 m
gs 1 -1 sc (v0) col0 sh gr
/Helvetica ff 476.25 scf sf
6075 11250 m
gs 1 -1 sc (v1) col0 sh gr
/Helvetica ff 476.25 scf sf
8550 7425 m
gs 1 -1 sc (v2) col0 sh gr
/Helvetica ff 476.25 scf sf
2250 -225 m
gs 1 -1 sc (x2) col0 sh gr
/Helvetica ff 476.25 scf sf
900 1575 m
gs 1 -1 sc (v3) col0 sh gr
/Helvetica ff 476.25 scf sf
6300 5175 m
gs 1 -1 sc (p3) col0 sh gr
/Helvetica ff 476.25 scf sf
6300 4275 m
gs 1 -1 sc (p2) col0 sh gr
/Helvetica ff 476.25 scf sf
6300 3375 m
gs 1 -1 sc (p1) col0 sh gr
/Helvetica ff 476.25 scf sf
6300 2475 m
gs 1 -1 sc (p0) col0 sh gr
% here ends figure;
$F2psEnd
rs
showpage
%%Trailer
%EOF
